module example.com/m/v2

go 1.19

require (
	github.com/gin-gonic/gin v1.8.2
	github.com/google/uuid v1.3.0
	github.com/joho/godotenv v1.4.0
	github.com/minio/minio-go/v7 v7.0.47
	github.com/spf13/cast v1.5.0
	github.com/swaggo/files v1.0.0
	github.com/swaggo/gin-swagger v1.5.3
	github.com/swaggo/swag v1.8.9
	go.uber.org/zap v1.24.0
	google.golang.org/grpc v1.52.0
	google.golang.org/protobuf v1.28.1
)

require (
	github.com/KyleBanks/depth v1.2.1 // indirect
	github.com/PuerkitoBio/purell v1.1.1 // indirect
	github.com/PuerkitoBio/urlesc v0.0.0-20170810143723-de5bf2ad4578 // indirect
	github.com/dustin/go-humanize v1.0.0 // indirect
	github.com/gin-contrib/sse v0.1.0 // indirect
	github.com/go-openapi/jsonpointer v0.19.5 // indirect
	github.com/go-openapi/jsonreference v0.19.6 // indirect
	github.com/go-openapi/spec v0.20.4 // indirect
	github.com/go-openapi/swag v0.19.15 // indirect
	github.com/go-playground/locales v0.14.0 // indirect
	github.com/go-playground/universal-translator v0.18.0 // indirect
	github.com/go-playground/validator/v10 v10.11.1 // indirect
	github.com/goccy/go-json v0.9.11 // indirect
	github.com/golang/protobuf v1.5.2 // indirect
	github.com/josharian/intern v1.0.0 // indirect
	github.com/json-iterator/go v1.1.12 // indirect
	github.com/klauspost/compress v1.15.9 // indirect
	github.com/klauspost/cpuid/v2 v2.1.0 // indirect
	github.com/leodido/go-urn v1.2.1 // indirect
	github.com/mailru/easyjson v0.7.6 // indirect
	github.com/mattn/go-isatty v0.0.16 // indirect
	github.com/minio/md5-simd v1.1.2 // indirect
	github.com/minio/sha256-simd v1.0.0 // indirect
	github.com/modern-go/concurrent v0.0.0-20180306012644-bacd9c7ef1dd // indirect
	github.com/modern-go/reflect2 v1.0.2 // indirect
	github.com/pelletier/go-toml/v2 v2.0.6 // indirect
	github.com/rs/xid v1.4.0 // indirect
	github.com/sirupsen/logrus v1.9.0 // indirect
	github.com/ugorji/go/codec v1.2.7 // indirect
	go.uber.org/atomic v1.7.0 // indirect
	go.uber.org/multierr v1.6.0 // indirect
	golang.org/x/crypto v0.0.0-20220722155217-630584e8d5aa // indirect
	golang.org/x/net v0.4.0 // indirect
	golang.org/x/sys v0.3.0 // indirect
	golang.org/x/text v0.5.0 // indirect
	golang.org/x/tools v0.1.12 // indirect
	google.golang.org/genproto v0.0.0-20221118155620-16455021b5e6 // indirect
	gopkg.in/ini.v1 v1.66.6 // indirect
	gopkg.in/yaml.v2 v2.4.0 // indirect
)
